439204 455179 387
353939 128701 443
31153 738395 509
186525 987127 525
209729 965696 525
591549 781441 509
249262 37684 443
736186 375222 509
129123 688026 509
839441 209730 525
432284 769745 509
713412 812332 468
775796 981025 525
859131 455966 525
212345 317828 443
442453 227810 449
929583 594406 525
644778 628531 416
947886 940441 383
555554 901025 525
516123 245631 470
230361 923377 525
124711 517696 470
164023 564367 470
379652 385260 379
225074 224293 368
614976 8422 470
798625 209391 509
250874 595153 470
688094 130917 509
322582 167404 443
845074 558689 525
799187 615838 509
658554 473366 509
214477 338876 443
874026 950468 507
932052 685922 525
148157 951680 525
274369 888528 525
708055 882165 525
915483 56843 525
713636 591493 509
448256 444124 338
578640 17144 470
859520 774861 525
903595 614250 525
622826 730976 509
508352 254150 449
184540 547974 470
801525 912137 525
758367 157034 509
972009 640157 525
425805 178978 449
397238 469374 449
381699 313416 441
557979 738905 509
159946 10003 383
958284 331501 525
809224 505481 509
164493 284005 443
782185 96505 509
98777 5534 351
858305 142502 525
688954 776057 504
643225 120704 509
186774 736210 509
429003 15848 449
441129 454682 387
612807 838052 525
214374 8349 383
639699 819780 504
589264 561307 434
522871 344569 470
245388 816023 509
883084 873877 432
59062 934600 525
848771 115420 525
373351 934173 525
185920 32730 383
220176 637034 509
423838 438774 400
73754 143132 375
270016 12826 443
75682 95194 351
347334 676031 509
900559 760857 525
610405 744961 509
777265 800225 468
467808 819232 509
872617 982164 507
138776 165663 383
831369 941808 525
173723 250963 443
840561 724600 525
6271 446266 449
693623 488131 509
672446 938053 525
382530 135685 443
201239 123514 383
664100 190393 509
44379 124831 354
430675 356240 449
806252 970864 525
703550 180410 509
198966 510198 449
725199 448410 509
163447 920888 525
679715 845226 525
383044 662998 509
596661 772274 509
859776 667887 525
901208 817257 525
718992 568719 509
98010 698606 509
806922 123090 509
420466 32261 449
188922 438533 449
125210 263897 443
556523 964978 525
971319 535334 525
365014 501343 449
201118 254194 443
48209 915251 525
136522 231850 443
365679 928835 525
671443 746723 504
783955 709736 468
965835 510584 525
494469 687119 509
154081 237659 443
842131 658156 525
176949 595064 470
672431 724535 504
509065 523030 470
555909 522665 452
881884 11213 525
667029 18091 509
582052 825921 509
84411 629125 509
987468 943041 458
92663 421716 449
59539 38658 340
580353 566635 390
996337 947274 458
692801 234559 509
956360 896722 507
134814 841969 525
566366 679222 509
9412 538862 470
18830 224769 386
191408 550208 470
580635 600066 434
623653 855962 525
151446 117766 375
235007 402354 441
496599 463648 426
285135 442231 449
499316 378795 449
750917 261065 509
892755 807301 525
740324 718898 424
422604 238501 449
511853 52391 449
460445 524277 470
397329 717277 509
774083 949581 525
244160 971063 525
918239 77148 525
63474 318830 443
130771 994359 525
823464 72244 509
963409 363534 525
229845 934499 525
426815 937870 525
722286 209005 509
801462 71480 509
269478 528225 470
649347 486071 509
653885 667756 442
555639 583051 421
542150 405859 470
621521 152903 470
22878 824313 509
348150 629632 509
316122 844436 525
497743 402368 449
727373 617670 509
697344 675087 442
497120 964966 525
340466 347502 441
817870 214892 509
981800 491323 525
611868 33585 470
998798 887140 507
651026 406500 509
980776 342472 525
934025 436591 525
486634 22523 449
212367 140491 383
810332 576730 509
357575 6487 443
162737 135281 383
624190 399247 470
815295 984008 525
355413 878166 525
21088 365314 443
764176 518860 509
884942 511052 525
69349 849541 525
666172 494364 509
500217 937273 525
436937 892631 525
