902877 786159
692132 657140
854732 272658
828589 340125
874114 698745
708107 511777
321561 213466
201832 752825
114877 658480
434398 628259
680597 522553
217068 433606
201120 321303
816284 504331
514286 583522
679789 463722
340143 507595
904365 257430
138079 524557
181043 338376
695624 705915
353849 383504
550090 890935
515307 445419
650682 506399
432814 603074
338291 814112
16347 15403
866821 122622
447561 417885
539775 2047
979590 572988
498515 238972
351433 826222
104337 333917
669193 908597
850543 470433
569824 500167
296933 87876
876493 498232
68731 882518
849661 39171
87469 530011
415332 871516
942303 733661
832223 550581
789713 241668
828018 795309
139373 773518
615262 295278
414850 375849
469519 353913
764964 43927
876447 569429
533705 313628
262207 360561
906916 638880
649653 712807
8950 687575
563990 337134
705312 152995
90944 474372
558559 989414
478733 679803
603655 250439
485228 315106
416754 852871
10520 301927
699961 317856
813116 167597
63371 162953
677346 692825
755782 483298
932922 949924
84565 612182
622787 931489
89559 346142
653486 730681
363146 284188
953263 221200
549333 95349
543314 676668
16857 281189
166147 892123
654118 106044
899784 65842
812000 56138
414432 506553
165700 698457
620128 52511
567488 339015
206068 979616
461459 455226
255951 435071
955430 223713
703295 891277
428927 551961
153314 46190
618092 678891
9347 140329
282838 115926
659600 68233
794237 783108
234643 301589
728406 227446
700142 161797
884531 479809
219172 116989
585049 554799
902664 698384
281647 76969
780041 107536
95833 589173
353895 47468
82735 44445
5612 401884
269501 809389
255548 559258
363731 802472
324573 511651
64726 752868
166339 181224
536713 995377
769495 351807
731611 238723
133954 77613
299752 983106
1795 858868
150835 694424
6824 970869
71018 898515
636079 424387
462703 613892
57158 213446
697028 600275
571608 734389
328598 426410
343959 572706
272133 83354
937203 244694
211807 659518
227769 869428
508033 614787
40100 290779
772376 835396
499675 96308
327232 109004
295327 172607
65221 18676
442964 394736
917607 412241
237573 153503
514985 935070
550275 623762
314133 773595
957094 700538
568795 346104
616242 635189
286133 383052
983310 135485
683253 675389
346947 926871
805866 673570
688139 21067
84366 282700
293533 840380
326005 463946
13733 248544
194461 318814
910908 216971
78129 927565
844055 429314
568311 625815
598202 827572
731122 910170
607729 254785
515037 444728
220951 271663
22904 268436
118549 122375
94998 105443
347143 535345
472399 927161
263579 751974
599962 64496
64979 840778
498187 220937
63517 910304
312234 795576
215656 518702
475771 298891
577350 877558
15515 722670
951439 256455
844368 459362
481099 546138
101830 618638
548999 548255
620672 356758
156302 663409
310360 448852
529412 294423
148014 417148
321644 926741
559016 310003
798289 212987
686697 603122
504785 673447
874052 692818
752293 204189
508377 140535
608567 116674
325466 491909
19511 977071
190621 249504
39370 684328
341777 693686
725218 880232
