655327 976674
573095 523717
101712 616218
92117 637122
475284 136229
868610 413376
205494 605328
455325 229274
487429 308067
483111 275167
687448 270134
667275 468179
158740 444254
789181 654224
912147 225123
916985 443023
639759 313351
291902 185764
322255 203920
5681 390843
65117 205450
221319 671425
467949 341243
645442 398825
38270 612248
160597 807853
420565 899612
318543 444910
610955 286922
53864 332910
82190 747882
866365 468044
280591 311628
300977 47043
754052 628042
499273 472158
65426 525987
932265 618228
829045 733455
113779 627799
735746 653513
612350 473376
558068 491372
457527 101178
87762 785142
23118 223399
912665 750321
889748 739138
281496 740495
433412 342151
431592 119185
7820 970755
362476 247214
239024 832622
832868 621659
71377 265026
682249 246483
197144 973900
667432 689331
329928 11888
825992 599719
197201 598931
888656 199394
33998 265297
335881 155178
334791 514458
220783 808843
236018 358067
722967 826060
75221 49619
194502 847875
677598 323988
15364 697019
178399 474890
360238 998971
754711 394149
66594 508828
257328 136669
506818 11974
718271 579843
798141 101892
910059 891155
561168 887615
251654 149879
344812 957430
6906 824368
843071 15834
521898 464413
15128 455517
189445 84415
913593 289201
155078 433854
431967 771219
627844 209606
582780 139751
244114 228053
977047 770561
575215 335738
730600 885082
472245 786220
143558 488596
687045 746225
379176 230623
544480 863171
932029 755998
803334 541261
803688 279954
436125 634325
564649 369502
53632 748723
131722 219718
839147 656544
928272 172360
164915 865069
93504 472376
505925 250321
911594 291948
887146 671055
569760 817789
93667 70773
285033 854221
706156 637155
480960 103664
689167 290649
945803 440409
276515 876243
754265 653284
527091 735453
861770 740718
203617 590965
303545 39090
32907 626555
390551 394243
606161 45497
993247 751999
792723 432956
494294 975232
682395 132594
374833 728874
784974 72038
678638 303591
591818 244981
145278 557904
984996 610974
273558 365411
190181 157337
621877 253895
875625 149325
517518 712699
417176 639869
912116 541979
442478 653429
921034 398696
605764 758622
271512 842283
490033 372981
339072 63579
702846 825846
394166 511892
363146 333281
911289 550428
317411 330272
827888 267359
218836 367695
69316 930915
401125 285475
145527 379009
542176 120656
464961 529467
255137 273929
19970 569130
111327 483040
972638 505978
714407 199106
305364 718310
923243 502080
810112 685761
98092 821834
356456 86579
671773 784165
281545 247564
658658 247149
948330 293037
515449 934108
239349 432201
111448 263491
411157 606293
24259 239880
606022 420414
56982 58453
59348 635923
43106 30755
350701 972516
912617 785358
593064 669717
481867 90965
252713 814394
891928 326532
302372 613188
881271 821837
349325 290685
346010 427651
840560 445464
833192 273289
747123 907038
212762 53413
140876 185812
168363 634170
116571 553528
431659 770422
680223 805092
211409 32707
355117 554780
80284 281350
409353 749857
499900 898193
425363 864430
288716 845504
