966112 230433
585558 530763
101606 863530
726487 407166
598586 891853
655754 308399
18586 951670
483151 543078
274790 575488
298412 457202
511140 893856
539513 918076
591829 414760
570310 571534
449977 395221
853446 594143
623981 208155
322131 137811
980183 266689
287554 434250
73424 695613
979050 895522
719436 17354
671378 488023
819522 269676
183120 32651
787610 819560
388691 365827
522743 484305
984201 243900
331567 481363
10539 632777
207489 551494
774582 100327
708420 202033
327271 695567
856693 227548
182335 401922
72407 914087
964728 201846
753752 848223
207883 446114
498880 162662
194277 278122
331767 686877
876197 570510
288142 214160
758104 321033
568260 527417
705580 414017
300265 986391
29979 990471
347278 101906
950790 398591
639720 682617
762839 8829
410259 549920
908700 188728
415459 232952
983469 28553
551794 63995
574758 907934
206091 185101
850612 966593
522308 929077
346884 479700
394001 753209
960975 478233
216383 985127
926756 739634
534887 441337
686275 367176
688663 376948
741089 934010
524527 692363
700473 282301
88485 994550
35405 872697
232824 558055
587688 403844
145093 94743
23740 121880
812259 917772
550333 37360
81858 898282
513538 105348
637402 607589
725380 370335
297913 974710
919576 286890
455584 598959
444000 363062
933634 899566
902015 647651
355540 526240
434121 229629
577743 438180
406475 614844
784580 290250
921847 149440
726710 319407
244036 16465
925485 105067
205738 229310
473271 252946
498028 788200
280698 85459
391539 265587
774914 192470
154565 650302
996399 972529
577441 535863
165377 998877
41249 679101
212612 804837
768618 365032
939796 142128
862288 788035
793003 937990
942334 228191
324840 349835
871603 243115
196412 31201
567422 606961
88274 981154
55367 994688
834862 418674
747449 269320
561190 642437
53449 678330
120614 379023
500020 665919
355331 867339
784773 4511
936696 968849
215062 411269
438154 186622
737093 138274
627996 850787
46091 486847
319634 685334
603943 782215
413611 151368
609531 793229
539240 997090
795172 209496
844593 167004
880546 335782
514847 390936
887968 118812
23958 708195
183985 87081
431136 734592
902220 423729
371362 976769
562170 36983
313023 703621
382089 801168
664755 189313
759098 372402
84155 929483
912977 552841
15134 942860
890348 932968
504546 254772
954359 773383
417974 164403
54244 903846
748541 195761
216345 172907
845165 387396
821507 186964
508748 425072
347697 859991
465973 309919
475747 524072
945411 411973
921755 126122
838247 706630
913956 222047
232130 251753
897999 711977
972888 541720
490928 470340
937878 503139
82667 142490
373929 441921
805380 103906
527110 244882
216547 855293
189780 663292
712162 827975
516481 745308
583041 32767
416686 32865
709612 30204
266782 145202
867568 255112
778451 404159
481672 57045
937309 479667
390012 736442
647078 133295
271201 890446
239547 104296
629625 549969
888837 304770
448249 739682
80060 137410
983265 821153
502819 812363
780155 404469
713917 773741
29515 903455
819801 755126
221677 805675
141954 989177
895794 843106
392494 531179
739772 586024
356462 518067
281116 744945
251587 370574
270310 891557
936740 132937
731833 626557
390524 49530
603675 991312
935691 439299
4274 623725
454530 510284
341522 879621
558964 475680
996844 122905
485630 363499
338525 362810
188731 673078
486130 833107
187289 666712
295406 13268
511338 307914
373547 669610
436170 758304
580918 553275
327776 938651
51151 590165
648074 995800
678033 267171
369100 715109
